[
  {
    "normalForm": "verkelegheit",
    "id": 51,
    "translations": "reality",
    "gender": "f",
    "synonym": 50
  },
  {
    "normalForm": "vindauge",
    "translations": "window",
    "gender": "n"
  }
]